-3.9875371672787274, 3.7613736048708324e-14
-3.8466172794083726, 3.4923224602814224e-14
-3.729502015793182, 3.426204101282269e-14
-3.594982029605646, 4.2039395962916436e-14
-3.500173906534434, 7.285291594540824e-14
-3.4468907512052467, 2.754651022116955e-13
-3.398682182097887, 1.3123074989503382e-12
-3.347936319879614, 1.0394726401657283e-11
-3.2971904576613413, 2.4147526277168402e-11
-3.246444595443068, 4.51940411363106e-11
-3.1942778490826838, 9.608938138039493e-11
-3.1424155778956084, 1.6379056948527385e-10
-3.091279362891041, 2.9158484267555596e-10
-3.0374043823697296, 5.398908537421662e-10
-2.9629296695714125, 8.796555745439221e-10
-2.9235959202957793, 1.4903160551496694e-9
-2.8630314142383386, 2.542334321143252e-9
-2.7848065017927195, 4.377119653835742e-9
-2.68900129897534, 7.394508139361568e-9
-2.578542672714906, 1.2170669725386882e-8
-2.452271851727095, 1.8895723968447623e-8
-2.319728492552225, 2.837141363992089e-8
-2.1885625210661366, 4.0177451305873356e-8
-2.0564541264245655, 5.146228882460151e-8
-1.9245148846570563, 6.148699654459434e-8
-1.7925756428895463, 7.026082334147803e-8
-1.6606364011220363, 7.81496467241065e-8
-1.5286971593545262, 8.407334265236098e-8
-1.3967579175870162, 9.119469002029581e-8
-1.264818675819507, 9.596217794946205e-8
-1.132879434051997, 1.0011242357459232e-7
-1.000940192284487, 1.0459881212962582e-7
-0.8690009505169769, 1.0859234505301469e-7
-0.7370617087494669, 1.119805583084508e-7
-0.6051224669819577, 1.1465533769981925e-7
-0.47318322521444767, 1.1783469257786981e-7
-0.3412439834469376, 1.2046861686151417e-7
-0.20930474167942759, 1.2320757213672955e-7
-0.07736549991191755, 1.251149215664905e-7
0.054573741855591607, 1.2709941185979067e-7
0.18651298362310165, 1.300378382228975e-7
0.3184522253906117, 1.3229854635628141e-7
0.4503914671581217, 1.353064650232851e-7
0.5823307089256309, 1.3698987188455444e-7
0.7142699506931409, 1.3709256706745674e-7
0.846209192460651, 1.392670388668444e-7
0.978148434228161, 1.4131706229835257e-7
1.110087675995671, 1.4163511786360743e-7
1.2420269177631802, 1.4409744473171637e-7
1.3739661595306902, 1.455626131893097e-7
1.5059054012982003, 1.4693253058411588e-7
1.6378446430657103, 1.4742885063092777e-7
1.7697838848332204, 1.4965508001362328e-7
1.9017231266007304, 1.5038581825853538e-7
2.0336623683682404, 1.521427793030001e-7
2.1656016101357487, 1.5351709222030011e-7
2.2975408519032587, 1.5432450054780518e-7
2.429480093670769, 1.5328718098155918e-7
2.561419335438279, 1.5438233480043584e-7
2.693358577205789, 1.5496187072780836e-7
2.825297818973299, 1.5753778419265622e-7
2.957237060740809, 1.5783319779927552e-7
3.089176302508319, 1.580107117962928e-7
3.221115544275829, 1.6009651941303718e-7
3.353054786043339, 1.5795151829182745e-7
3.4849940278108473, 1.6051697339859535e-7
3.6169332695783574, 1.6033664379174072e-7
3.7488725113458674, 1.6057712832641363e-7
3.8808117531133774, 1.6057712832641363e-7
4.002601822437233, 1.6040219474235444e-7
