-3.957873391597579, 9.598591203840886e-14
-3.8608809812210767, 1.337119091944374e-13
-3.8087477841001625, 5.121003720602526e-13
-3.8097236660658984, 1.829526423619929e-13
-3.819872838509553, 3.144808836108531e-13
-3.7573466868477525, 2.121206704824231e-12
-3.784350734956762, 9.336727504664068e-13
-3.7742015625131073, 1.2788957008349157e-12
-3.7040970935967525, 2.2569760645719697e-11
-3.7386794589603163, 3.766935723020396e-12
-3.7234557002948345, 6.006180899812882e-12
-3.7056946485184388, 9.943616091783901e-12
-3.6565101974453436, 6.04738627954811e-11
-3.6004477302777405, 1.0980215142940906e-10
-3.5420392428645084, 3.24052031974477e-10
-3.5226785932573192, 6.836782606168495e-10
-3.4715174196347025, 1.4864851243760124e-9
-3.395152035160963, 2.455964032029732e-9
-3.3514664668165373, 3.7168936599734323e-9
-3.3098769232159087, 5.745866524194072e-9
-3.222657472528252, 1.3124177837762932e-8
-3.180474974559313, 1.9612849838054775e-8
-3.1319039350075384, 3.083020464119701e-8
-3.0817157196268274, 4.6616282514657605e-8
-3.0304927595586393, 7.150297197775381e-8
-2.9786192115132937, 1.1137515099067628e-7
-2.915280857559375, 1.646501487301862e-7
-2.8493582235850816, 2.4334835748673953e-7
-2.7788827201078083, 3.648726174680241e-7
-2.699583303773209, 5.396544085965433e-7
-2.6046363030374593, 7.83396245096438e-7
-2.4996140280648746, 0.000001115410485062281
-2.3904009350994313, 0.0000015054133454995447
-2.2869574467314133, 0.0000018913552940844804
-2.1786996073324314, 0.0000022934320760695247
-2.073117970369215, 0.0000027212089412132643
-1.9694813570115812, 0.0000031433214378267158
-1.862677426839646, 0.0000035200606081696923
-1.7557102665133302, 0.000003888488216931863
-1.6479499355674676, 0.000004203659229663123
-1.5395925944778615, 0.000004520998488310664
-1.4318322635319989, 0.0000047780489792982205
-1.3252379680231376, 0.0000051002445404490995
-1.2216846929339749, 0.000005385834360146827
-1.1183923088703285, 0.000005599849437660457
-1.0102436003578372, 0.000005754130262449838
-0.9025827711025984, 0.000005964367737575785
-0.7949283613112712, 0.000006256815204581483
-0.685681523253467, 0.00000637922752986673
-0.5790129023890067, 0.000006532071184711422
-0.47538221257724, 0.000006681762311355747
-0.37226443793197905, 0.000006821579867756276
-0.2665524174944167, 0.000006923625781024103
-0.1574948533178686, 0.000007112735093652562
-0.049455275691867584, 0.000007284726978062516
0.06015578669960142, 0.000007447223162732252
0.16536887436548664, 0.000007527457140474135
0.27125857352761784, 0.000007633302872985248
0.37680996694162694, 0.000007713440546408487
0.48010235100527154, 0.000007803651173056972
0.58677097186973, 0.000007858406655568865
0.6954939816723797, 0.000008084896175552036
0.8038681136722783, 0.000008091462339598751
0.9128131366221339, 0.000008160729854689426
1.0194817574865933, 0.000008338632840438951
1.1234740844773867, 0.000008527514923727516
1.2279405663543148, 0.000008538981097703379
1.3308321766451563, 0.000008633007123216952
1.4409998065577323, 0.000008645495741935805
1.54871199152426, 0.000008782412585142824
1.6587159251070958, 0.000008896300868433385
1.765671720136222, 0.000009022609855556396
1.8708381449402989, 0.000009013521635211708
1.9753046268172252, 0.000009031511500297212
2.0785970108808716, 0.000009042871385784368
2.1845085362202994, 0.000009099885500912212
2.2939886415479798, 0.000009281354032670118
2.4031556776450405, 0.00000919230806872529
2.511307796497734, 0.00000916436616948327
2.6179764173621933, 0.000009357989021366402
2.721607107173961, 0.000009402697365451563
2.8276714157544767, 0.000009431798166871714
2.930901708106843, 0.00000958823019734244
3.147861436718804, 0.00000958116751124716
3.2555736216853326, 0.000009602267138014521
3.3646311858618816, 0.000009563400768269987
3.469332804815899, 0.000009806480072194756
3.573799286692825, 0.000009714568066576152
3.6770916707564716, 0.0000097758171409615
3.7846401593932626, 0.000009806586339102272
3.89248330142358, 0.000009968676316894036
3.9919451913713964, 0.000010046018199932914
3.03862660944206, 0.000009739790564741588
