-3.9819925141226675, 4.563719944307908e-14
-3.8675981136910242, 5.686641128127781e-14
-3.7944999074004166, 1.0246920560568894e-13
-3.7462913382930574, 3.3224784168184757e-13
-3.695545476074784, 1.776451261176744e-12
-3.6447996138565113, 1.1989351597709375e-11
-3.5940537516382385, 2.313725989026669e-11
-3.5483824756417928, 5.56305529812472e-11
-3.4976366134235195, 1.494800057913074e-10
-3.4468907512052467, 3.4779229731724653e-10
-3.3961448889869734, 6.592122770121057e-10
-3.3453990267687006, 1.3031637381417152e-9
-3.279660068895029, 3.064345809782936e-9
-3.2174469598897684, 5.616619210224975e-9
-3.176376270303222, 8.872307982402674e-9
-3.0846619537519557, 1.655360766714736e-8
-2.9837194269584644, 3.1939881046298396e-8
-2.883611680582417, 6.04204619079018e-8
-2.7755009306391383, 1.0821090162587892e-7
-2.654832418415035, 1.6673912133468374e-7
-2.5338881134614835, 2.495103064086385e-7
-2.4066005757306494, 3.327997722708886e-7
-2.273269915160381, 4.677294245084749e-7
-2.1436735771122226, 5.605892979653573e-7
-2.011846876571407, 6.485336732327903e-7
-1.87780989665246, 7.564791795645896e-7
-1.7469043668931006, 8.384204581080714e-7
-1.6149651251255905, 9.040022472661428e-7
-1.4830258833580805, 9.66350081584248e-7
-1.3510866415905705, 0.0000010115489136393966
-1.2191473998230613, 0.000001054506637795854
-1.0872081580555513, 0.0000011046562838073866
-0.9552689162880412, 0.0000011442562127683603
-0.8233296745205312, 0.0000011901709930317878
-0.6913904327530211, 0.0000012108621186367282
-0.559451190985512, 0.0000012407143098484972
-0.42751194921800195, 0.0000012670226201993168
-0.2955727074504919, 0.0000012943736707187488
-0.16363346568298187, 0.0000013272789842791268
-0.03169422391547183, 0.00000134177974351516
0.10024501785203732, 0.0000013702310619489316
0.23218425961954736, 0.000001390922050436861
0.3641235013870574, 0.0000014119254803928732
0.49606274315456744, 0.0000014321724341475487
0.6280019849220766, 0.000001457070755394137
0.7599412266895866, 0.0000014630885519614054
0.8918804684570967, 0.0000014868520968635107
1.0238197102246067, 0.0000015002829021386274
1.1557589519921168, 0.000001517810742497899
1.287698193759626, 0.0000015298006415986795
1.419637435527136, 0.0000015384227997902324
1.551576677294646, 0.0000015616535448258534
1.683515919062156, 0.0000015810827590310537
1.815455160829666, 0.0000015941696765917106
1.947394402597176, 0.0000015965607279683618
2.079333644364686, 0.0000016206693769108862
2.2112728861321944, 0.0000016255346178982315
2.3432121278997045, 0.0000016255346178982315
2.4751513696672145, 0.000001641447747162737
2.6070906114347245, 0.0000016575166575962195
2.7390298532022346, 0.0000016649860408538938
2.8709690949697446, 0.0000016901279369621835
3.0029083367372547, 0.0000016901279369621835
3.1348475785047647, 0.0000016901279369621835
3.2667868202722747, 0.0000017009278753496225
3.398726062039785, 0.0000017066734008595972
3.530665303807293, 0.0000017066734008595972
3.662604545574803, 0.0000017066734008595972
3.794543787342313, 0.0000017066734008595972
3.926483029109823, 0.0000017130800830319234
4.022900167324542, 0.0000017388396264853316
