# Doping vs xp for 10 micron width
1.0e10  400
5.0e10  100
1.0e11  50
5.0e11  14
1.0e12  9


# MoS2 bulk
1.00e+10   264.869
5.00e+10   121.519
1.00e+11    86.844
5.00e+11    39.774
1.00e+12    28.405


# Si bulk
1.00e+10   312.733
5.00e+10   147.352
1.00e+11   106.394
5.00e+11    49.791
1.00e+12    35.860


# Ge bulk
1.00e+10   254.451
5.00e+10   126.210
1.00e+11    92.770
5.00e+11    44.936
1.00e+12    32.769


# GaAs bulk
1.00e+10   411.773
5.00e+10   190.484
1.00e+11   136.577
5.00e+11    62.991
1.00e+12    45.112

